{"_type":"export","__export_format":4,"__export_date":"2023-04-08T11:56:33.633Z","__export_source":"insomnia.desktop.app:v2023.1.0","resources":[{"_id":"req_4aeddaabdad642d2b95ec1c49cf17572","parentId":"wrk_128456c253594daa8132c8131a03ce53","modified":1680954259089,"created":1680800560081,"url":"{{ _.baseUrl }}/movies","name":"Years with multiple winners","description":"Route type: GET\n\n* Required query: projection\n\n* Query value: years-with-multiple-winners\n\n* Reponse example: \n\n`\n{\n\"years\": [\n{\n\"year\": 9999, \"winnerCount\": 99\n}, {\n\"winnerCount\": 99 }\n] }\n`","method":"GET","body":{},"parameters":[{"id":"pair_960076fc420849c8b7231b95cbc4e64b","name":"projection","value":"years-with-multiple-winners","description":""}],"headers":[],"authentication":{},"metaSortKey":-1680800560081,"isPrivate":false,"settingStoreCookies":false,"settingSendCookies":true,"settingDisableRenderRequestBody":false,"settingEncodeUrl":true,"settingRebuildPath":true,"settingFollowRedirects":"global","_type":"request"},{"_id":"wrk_128456c253594daa8132c8131a03ce53","parentId":null,"modified":1680954941208,"created":1679485435407,"name":"Texo backend","description":"","scope":"collection","_type":"workspace"},{"_id":"req_b4cef66d15314a50b792243605ec3dec","parentId":"wrk_128456c253594daa8132c8131a03ce53","modified":1680954308621,"created":1680810908113,"url":"{{ _.baseUrl }}/movies","name":"Studios with win count","description":"Route type: GET\n\n* Required query: projection\n\n* Query value: studios-with-win-count\n\n* Reponse example: \n\n`\n{\n\"studios\": [\n{\n\"name\": \"Studio Name\", \"winCount\": 9\n}, {\n\"winCount\": 9 }\n] }\n`","method":"GET","body":{},"parameters":[{"id":"pair_e8359fedc3a746f2a1783ccdd617c970","name":"projection","value":"studios-with-win-count","description":""}],"headers":[],"authentication":{},"metaSortKey":-1680153897188,"isPrivate":false,"settingStoreCookies":true,"settingSendCookies":true,"settingDisableRenderRequestBody":false,"settingEncodeUrl":true,"settingRebuildPath":true,"settingFollowRedirects":"global","_type":"request"},{"_id":"req_5ca23b4eb82a48b8b161dd8307e3564f","parentId":"wrk_128456c253594daa8132c8131a03ce53","modified":1680954460506,"created":1680812035218,"url":"{{ _.baseUrl }}/movies","name":"List movies","description":"Route type: GET\n\n* Optionsl queries: page, size, winner and year\n\n* Query value: \n\t* page: 1\n\t* size: 99\n\t* winner: true\n\t* year: 2023\n\n* Reponse example: \n\n`\n{\n\"content\":[\n{\n\"id\":999,\n\"year\":1900,\n\"title\":\"Movie Title\", studios\":[\"Studio Name\"], \"producers\":[\"Producer Name\"], \"winner\":true\n}, {\n} ]\n\"pageable\": {\n\"sort\": {\n\"sorted\":false,\n\"unsorted\":true },\n\"pageSize\":00, \"pageNumber\":0, \"offset\":0, \"paged\":true, \"unpaged\":false\n}, \"totalElements\":999, \"last\":false, \"totalPages\":99, \"first\":true,\n\"sort\":\n{\n\"sorted\":false, \"unsorted\":true\n},\n\"number\":0, \"numberOfElements\":99, \"size\":99\n}\n`","method":"GET","body":{},"parameters":[{"id":"pair_bb3a7698a10243ea835bb94aca52d1e7","name":"size","value":"5","description":"","disabled":true},{"id":"pair_ca2da90320ae43cf89f2581726fd2b4c","name":"page","value":"2","description":"","disabled":true},{"id":"pair_4ac34a2b349f44ddb1597e995da4e172","name":"winner","value":"true","description":"","disabled":false},{"id":"pair_bc40420963c747a9a5474fd499815996","name":"year","value":"2015","description":""}],"headers":[],"authentication":{},"metaSortKey":-1679830565741.5,"isPrivate":false,"settingStoreCookies":true,"settingSendCookies":true,"settingDisableRenderRequestBody":false,"settingEncodeUrl":true,"settingRebuildPath":true,"settingFollowRedirects":"global","_type":"request"},{"_id":"req_d6927db86b2248f0899166ca67bc5e7b","parentId":"wrk_128456c253594daa8132c8131a03ce53","modified":1680954559184,"created":1680953789618,"url":"{{ _.baseUrl }}/movies","name":"Max and min winners","description":"Route type: GET\n\n* Required query: projection\n\n* Query value: max-min-win-interval-for-producers\n\n* Reponse example: \n\n`\n{\n\"min\": [\n{\n\"producer\": \"Producer Name\", \"interval\": 9,\n\"previousWin\": 2018, \"followingWin\": 2019\n} ],\n\"max\": [ {\n\"producer\": \"Producer Name\", \"interval\": 99,\n\"previousWin\": 1900, \"followingWin\": 1999\n} ]\n}\n`","method":"GET","body":{},"parameters":[{"id":"pair_bc40420963c747a9a5474fd499815996","name":"projection","value":"max-min-win-interval-for-producers","description":""}],"headers":[],"authentication":{},"metaSortKey":-1679668900018.25,"isPrivate":false,"settingStoreCookies":true,"settingSendCookies":true,"settingDisableRenderRequestBody":false,"settingEncodeUrl":true,"settingRebuildPath":true,"settingFollowRedirects":"global","_type":"request"},{"_id":"env_23e61b160c1c830de32bf3db4c1610d762a649bb","parentId":"wrk_128456c253594daa8132c8131a03ce53","modified":1679485430616,"created":1679485430616,"name":"Base Environment","data":{},"dataPropertyOrder":null,"color":null,"isPrivate":false,"metaSortKey":1679485430616,"_type":"environment"},{"_id":"jar_23e61b160c1c830de32bf3db4c1610d762a649bb","parentId":"wrk_128456c253594daa8132c8131a03ce53","modified":1679485443980,"created":1679485443980,"name":"Default Jar","cookies":[],"_type":"cookie_jar"},{"_id":"spc_0ff51baaf96b4af3b41a2240d0eea3f1","parentId":"wrk_128456c253594daa8132c8131a03ce53","modified":1679485435409,"created":1679485435409,"fileName":"My Collection","contents":"","contentType":"yaml","_type":"api_spec"},{"_id":"env_6d4a33883d884468a92ba4177ddfbc37","parentId":"env_23e61b160c1c830de32bf3db4c1610d762a649bb","modified":1679485451381,"created":1679485430618,"name":"Motive LOCAL","data":{"host":"localhost:8000","version":"v1","oauth-host":"https://cymedicaortho.us.auth0.com","oauth-client-id":"TUex4esUjXDPuOsC9unMuYHX8MivBSec","oauth-client-secret":"fXCqal2WYntFosqYphGw47qDQ7n5qy34_Vg3KYysn52MbYQMS7qF9zGBdgfjuFfh","oauth-grant-type":"http://auth0.com/oauth/grant-type/passwordless/otp","oauth-audience":"https://cymedicaortho.us.auth0.com/api/v2/","oauth-token":"<<OAUTH TOKEN VALUE>>","oauth-user-email":"<<YOUR EMAIL HERE>>"},"dataPropertyOrder":{"&":["host","version","oauth-host","oauth-client-id","oauth-client-secret","oauth-grant-type","oauth-audience","oauth-token","oauth-user-email"]},"color":null,"isPrivate":false,"metaSortKey":1679485430618,"_type":"environment"},{"_id":"env_88f1449f30cd49cd9ee5cac93100d0d0","parentId":"env_23e61b160c1c830de32bf3db4c1610d762a649bb","modified":1680953940822,"created":1680953906235,"name":"Dev","data":{"baseUrl":"http://localhost:3333"},"dataPropertyOrder":{"&":["baseUrl"]},"color":null,"isPrivate":false,"metaSortKey":1680953906235,"_type":"environment"}]}